Day 1: Introduction to the CCR, and to R • RPG520
…
First install BiocManager from CRAN, then use BiocManager::install() to install Bioconductor packages.

A particularly common suite of packages is the ‘tidyverse’. To use the dplyr contributed CRAN package, load the package

library(dplyr)

A dplyr ‘tibble’ is like a ‘data.frame’, but more user-friendly

tbl <- tibble(
    x = rnorm(100),
    y = x + rnorm(100)
)

tbl # e.g., only displays the first 10 rows
## # A tibble: 100 × 2
##          x      y
##      <dbl>  <dbl>
##  1  0.0655 -0.335
##  2 -1.10   -0.482
##  3 -0.633   1.34 
##  4 -2.06   -0.179
##  5  2.65    1.06 
##  6 -1.15   -1.69 
##  7 -0.341  -1.51 
##  8  0.786   1.35 
##  9 -1.27   -3.09 
## 10  0.542   0.935
## # ℹ 90 more rows
…
